%YAML 1.1
%TAG !u! tag:unity3d.com,2011:
--- !u!74 &7400000
AnimationClip:
  m_ObjectHideFlags: 0
  m_CorrespondingSourceObject: {fileID: 0}
  m_PrefabInstance: {fileID: 0}
  m_PrefabAsset: {fileID: 0}
  m_Name: stand_d2
  serializedVersion: 6
  m_Legacy: 0
  m_Compressed: 0
  m_UseHighQualityCurve: 1
  m_RotationCurves: []
  m_CompressedRotationCurves: []
  m_EulerCurves: []
  m_PositionCurves: []
  m_ScaleCurves: []
  m_FloatCurves: []
  m_PPtrCurves:
  - curve:
    - time: 0
      value: {fileID: 21300000, guid: a928a39961eb1b94a8ee1680286824b7, type: 3}
    - time: 0.041666668
      value: {fileID: 21300000, guid: 7a9ab0629cc59ef4286c7b955d4f06f2, type: 3}
    - time: 0.083333336
      value: {fileID: 21300000, guid: e39027d3347f35742a3f5f2e52ddc789, type: 3}
    - time: 0.125
      value: {fileID: 21300000, guid: 7601e7460e439564ba0e3274c0da3d1e, type: 3}
    - time: 0.16666667
      value: {fileID: 21300000, guid: fd2ff9756309bcc4bb02d9c78d9c04be, type: 3}
    - time: 0.20833333
      value: {fileID: 21300000, guid: bc79506014eba1948a371e9c40819340, type: 3}
    - time: 0.25
      value: {fileID: 21300000, guid: dab32615248ddc84c8ebe8ad65e1ea55, type: 3}
    - time: 0.29166666
      value: {fileID: 21300000, guid: b64e7a24bff58bb4489d2fbb33584691, type: 3}
    attribute: m_Sprite
    path: 
    classID: 212
    script: {fileID: 0}
  m_SampleRate: 24
  m_WrapMode: 0
  m_Bounds:
    m_Center: {x: 0, y: 0, z: 0}
    m_Extent: {x: 0, y: 0, z: 0}
  m_ClipBindingConstant:
    genericBindings:
    - serializedVersion: 2
      path: 0
      attribute: 0
      script: {fileID: 0}
      typeID: 212
      customType: 23
      isPPtrCurve: 1
    pptrCurveMapping:
    - {fileID: 21300000, guid: a928a39961eb1b94a8ee1680286824b7, type: 3}
    - {fileID: 21300000, guid: 7a9ab0629cc59ef4286c7b955d4f06f2, type: 3}
    - {fileID: 21300000, guid: e39027d3347f35742a3f5f2e52ddc789, type: 3}
    - {fileID: 21300000, guid: 7601e7460e439564ba0e3274c0da3d1e, type: 3}
    - {fileID: 21300000, guid: fd2ff9756309bcc4bb02d9c78d9c04be, type: 3}
    - {fileID: 21300000, guid: bc79506014eba1948a371e9c40819340, type: 3}
    - {fileID: 21300000, guid: dab32615248ddc84c8ebe8ad65e1ea55, type: 3}
    - {fileID: 21300000, guid: b64e7a24bff58bb4489d2fbb33584691, type: 3}
  m_AnimationClipSettings:
    serializedVersion: 2
    m_AdditiveReferencePoseClip: {fileID: 0}
    m_AdditiveReferencePoseTime: 0
    m_StartTime: 0
    m_StopTime: 0.3333333
    m_OrientationOffsetY: 0
    m_Level: 0
    m_CycleOffset: 0
    m_HasAdditiveReferencePose: 0
    m_LoopTime: 1
    m_LoopBlend: 0
    m_LoopBlendOrientation: 0
    m_LoopBlendPositionY: 0
    m_LoopBlendPositionXZ: 0
    m_KeepOriginalOrientation: 0
    m_KeepOriginalPositionY: 1
    m_KeepOriginalPositionXZ: 0
    m_HeightFromFeet: 0
    m_Mirror: 0
  m_EditorCurves: []
  m_EulerEditorCurves: []
  m_HasGenericRootTransform: 0
  m_HasMotionFloatCurves: 0
  m_Events: []
