%YAML 1.1
%TAG !u! tag:unity3d.com,2011:
--- !u!74 &7400000
AnimationClip:
  m_ObjectHideFlags: 0
  m_PrefabParentObject: {fileID: 0}
  m_PrefabInternal: {fileID: 0}
  m_Name: rightward jump
  serializedVersion: 6
  m_Legacy: 0
  m_Compressed: 0
  m_UseHighQualityCurve: 1
  m_RotationCurves: []
  m_CompressedRotationCurves: []
  m_EulerCurves: []
  m_PositionCurves: []
  m_ScaleCurves: []
  m_FloatCurves: []
  m_PPtrCurves:
  - curve:
    - time: 0
      value: {fileID: 21300000, guid: e6706e58add71554a85cc1dd79f85da6, type: 3}
    - time: 0.06666667
      value: {fileID: 21300000, guid: 3931d77bf21a54a449eb700f37e3b92d, type: 3}
    - time: 0.13333334
      value: {fileID: 21300000, guid: 0623b8a64c41996408ff697e4372dd68, type: 3}
    - time: 0.2
      value: {fileID: 21300000, guid: ae0cf657ef7a8f64f81cacef4c01a989, type: 3}
    - time: 0.26666668
      value: {fileID: 21300000, guid: 84e2bbbbf182d8a4a898826eeeffbaa7, type: 3}
    - time: 0.33333334
      value: {fileID: 21300000, guid: e17596d1d3681dc4d95a6fae2bad8d6c, type: 3}
    - time: 0.4
      value: {fileID: 21300000, guid: 18eb83d05f79c7243afd8c61042c679b, type: 3}
    - time: 0.46666667
      value: {fileID: 21300000, guid: b59afb0811f87b74b8829b8ffe736ee0, type: 3}
    - time: 0.53333336
      value: {fileID: 21300000, guid: 44d3d7cd12354b64a9b49407a88fcd83, type: 3}
    - time: 0.6
      value: {fileID: 21300000, guid: b4aa8e293644e9c4abf5567b5597c00a, type: 3}
    - time: 0.6666667
      value: {fileID: 21300000, guid: 7408bc200d6c9aa4e90e32d5c4e8c811, type: 3}
    - time: 0.73333335
      value: {fileID: 21300000, guid: d0a36938b68263946adde5e8ab052cbb, type: 3}
    - time: 0.8
      value: {fileID: 21300000, guid: 9065dbed1881e1f4d8c20139262a5783, type: 3}
    - time: 0.8666667
      value: {fileID: 21300000, guid: f2fd59c884fc1d14faaa6af58bfeaab3, type: 3}
    attribute: m_Sprite
    path: 
    classID: 212
    script: {fileID: 0}
  m_SampleRate: 15
  m_WrapMode: 0
  m_Bounds:
    m_Center: {x: 0, y: 0, z: 0}
    m_Extent: {x: 0, y: 0, z: 0}
  m_ClipBindingConstant:
    genericBindings:
    - serializedVersion: 2
      path: 0
      attribute: 0
      script: {fileID: 0}
      typeID: 212
      customType: 23
      isPPtrCurve: 1
    pptrCurveMapping:
    - {fileID: 21300000, guid: e6706e58add71554a85cc1dd79f85da6, type: 3}
    - {fileID: 21300000, guid: 3931d77bf21a54a449eb700f37e3b92d, type: 3}
    - {fileID: 21300000, guid: 0623b8a64c41996408ff697e4372dd68, type: 3}
    - {fileID: 21300000, guid: ae0cf657ef7a8f64f81cacef4c01a989, type: 3}
    - {fileID: 21300000, guid: 84e2bbbbf182d8a4a898826eeeffbaa7, type: 3}
    - {fileID: 21300000, guid: e17596d1d3681dc4d95a6fae2bad8d6c, type: 3}
    - {fileID: 21300000, guid: 18eb83d05f79c7243afd8c61042c679b, type: 3}
    - {fileID: 21300000, guid: b59afb0811f87b74b8829b8ffe736ee0, type: 3}
    - {fileID: 21300000, guid: 44d3d7cd12354b64a9b49407a88fcd83, type: 3}
    - {fileID: 21300000, guid: b4aa8e293644e9c4abf5567b5597c00a, type: 3}
    - {fileID: 21300000, guid: 7408bc200d6c9aa4e90e32d5c4e8c811, type: 3}
    - {fileID: 21300000, guid: d0a36938b68263946adde5e8ab052cbb, type: 3}
    - {fileID: 21300000, guid: 9065dbed1881e1f4d8c20139262a5783, type: 3}
    - {fileID: 21300000, guid: f2fd59c884fc1d14faaa6af58bfeaab3, type: 3}
  m_AnimationClipSettings:
    serializedVersion: 2
    m_AdditiveReferencePoseClip: {fileID: 0}
    m_AdditiveReferencePoseTime: 0
    m_StartTime: 0
    m_StopTime: 0.93333334
    m_OrientationOffsetY: 0
    m_Level: 0
    m_CycleOffset: 0
    m_HasAdditiveReferencePose: 0
    m_LoopTime: 1
    m_LoopBlend: 0
    m_LoopBlendOrientation: 0
    m_LoopBlendPositionY: 0
    m_LoopBlendPositionXZ: 0
    m_KeepOriginalOrientation: 0
    m_KeepOriginalPositionY: 1
    m_KeepOriginalPositionXZ: 0
    m_HeightFromFeet: 0
    m_Mirror: 0
  m_EditorCurves: []
  m_EulerEditorCurves: []
  m_HasGenericRootTransform: 0
  m_HasMotionFloatCurves: 0
  m_GenerateMotionCurves: 0
  m_Events: []
