%YAML 1.1
%TAG !u! tag:unity3d.com,2011:
--- !u!49 &-6894559980558964183
TextAsset:
  m_ObjectHideFlags: 0
  m_CorrespondingSourceObject: {fileID: 0}
  m_PrefabInstance: {fileID: 0}
  m_PrefabAsset: {fileID: 0}
  m_Name: StartTrot
  m_Script: '{"keys":[{"position":0,"time":0.0,"v":0.0}],"name":"StartTrot","xDirection":1.0,"yDirection":0.0,"pairedAnimation":""}'
--- !u!49 &-3332008378184154543
TextAsset:
  m_ObjectHideFlags: 0
  m_CorrespondingSourceObject: {fileID: 0}
  m_PrefabInstance: {fileID: 0}
  m_PrefabAsset: {fileID: 0}
  m_Name: Idle
  m_Script: '{"keys":[{"position":0,"time":1000.000244140625,"v":186.0},{"position":1,"time":2399.999755859375,"v":94.5},{"position":2,"time":4233.33447265625,"v":87.5},{"position":3,"time":5174.99951171875,"v":63.0},{"position":4,"time":6133.33349609375,"v":197.0},{"position":5,"time":6808.33349609375,"v":203.5},{"position":6,"time":7625.0,"v":197.0},{"position":7,"time":7633.333984375,"v":153.0}],"name":"Idle","xDirection":1.0,"yDirection":0.0,"pairedAnimation":"lefttest"}'
--- !u!49 &-2989284267289002125
TextAsset:
  m_ObjectHideFlags: 0
  m_CorrespondingSourceObject: {fileID: 0}
  m_PrefabInstance: {fileID: 0}
  m_PrefabAsset: {fileID: 0}
  m_Name: StartGallop
  m_Script: '{"keys":[{"position":0,"time":0.0,"v":0.0}],"name":"StartGallop","xDirection":1.0,"yDirection":0.0,"pairedAnimation":""}'
--- !u!49 &-843985993956814249
TextAsset:
  m_ObjectHideFlags: 0
  m_CorrespondingSourceObject: {fileID: 0}
  m_PrefabInstance: {fileID: 0}
  m_PrefabAsset: {fileID: 0}
  m_Name: WallClimb
  m_Script: '{"keys":[{"position":0,"time":0.0,"v":0.0}],"name":"WallClimb","xDirection":1.0,"yDirection":0.0,"pairedAnimation":""}'
--- !u!49 &-114772173701360362
TextAsset:
  m_ObjectHideFlags: 0
  m_CorrespondingSourceObject: {fileID: 0}
  m_PrefabInstance: {fileID: 0}
  m_PrefabAsset: {fileID: 0}
  m_Name: Gallop
  m_Script: '{"keys":[{"position":0,"time":0.0,"v":0.0}],"name":"Gallop","xDirection":1.0,"yDirection":0.0,"pairedAnimation":""}'
--- !u!49 &4900000
TextAsset:
  m_ObjectHideFlags: 0
  m_CorrespondingSourceObject: {fileID: 0}
  m_PrefabInstance: {fileID: 0}
  m_PrefabAsset: {fileID: 0}
  m_Name: Ivory_Husk_AcceleratedStates_auto_09
  m_Script: '{"keys":[{"position":0,"time":0.0,"v":0.0}],"name":"WallSlide","xDirection":1.0,"yDirection":0.0,"pairedAnimation":""}'
--- !u!49 &474344262310829599
TextAsset:
  m_ObjectHideFlags: 0
  m_CorrespondingSourceObject: {fileID: 0}
  m_PrefabInstance: {fileID: 0}
  m_PrefabAsset: {fileID: 0}
  m_Name: WallCling
  m_Script: '{"keys":[{"position":0,"time":0.0,"v":0.0}],"name":"WallCling","xDirection":1.0,"yDirection":0.0,"pairedAnimation":""}'
--- !u!49 &6298205597160387813
TextAsset:
  m_ObjectHideFlags: 0
  m_CorrespondingSourceObject: {fileID: 0}
  m_PrefabInstance: {fileID: 0}
  m_PrefabAsset: {fileID: 0}
  m_Name: Landing
  m_Script: '{"keys":[{"position":0,"time":0.0,"v":0.0}],"name":"Landing","xDirection":1.0,"yDirection":0.0,"pairedAnimation":""}'
--- !u!49 &6390704844525066001
TextAsset:
  m_ObjectHideFlags: 0
  m_CorrespondingSourceObject: {fileID: 0}
  m_PrefabInstance: {fileID: 0}
  m_PrefabAsset: {fileID: 0}
  m_Name: Trot
  m_Script: '{"keys":[{"position":0,"time":0.0,"v":0.0}],"name":"Trot","xDirection":1.0,"yDirection":0.0,"pairedAnimation":""}'
--- !u!49 &7146174306553431591
TextAsset:
  m_ObjectHideFlags: 0
  m_CorrespondingSourceObject: {fileID: 0}
  m_PrefabInstance: {fileID: 0}
  m_PrefabAsset: {fileID: 0}
  m_Name: AirborneMoving
  m_Script: '{"keys":[{"position":0,"time":0.0,"v":0.0}],"name":"AirborneMoving","xDirection":1.0,"yDirection":0.0,"pairedAnimation":""}'
--- !u!49 &8577526230585839388
TextAsset:
  m_ObjectHideFlags: 0
  m_CorrespondingSourceObject: {fileID: 0}
  m_PrefabInstance: {fileID: 0}
  m_PrefabAsset: {fileID: 0}
  m_Name: Airborne
  m_Script: '{"keys":[{"position":0,"time":0.0,"v":0.0}],"name":"Airborne","xDirection":1.0,"yDirection":0.0,"pairedAnimation":""}'
